Package overview
…
eia_facets("electricity/retail-sales", "sectorid")
#> # A tibble: 6 × 3
#>   id    name           alias               
#>   <chr> <chr>          <chr>               
#> 1 RES   residential    (RES) residential   
#> 2 COM   commercial     (COM) commercial    
#> 3 ALL   all sectors    (ALL) all sectors   
#> 4 OTH   other          (OTH) other         
#> 5 TRA   transportation (TRA) transportation
#> 6 IND   industrial     (IND) industrial
# or
eia_facets("electricity/retail-sales", "stateid")
#> # A tibble: 62 × 3
#>    id    name               alias                           
#>    <chr> <chr>              <chr>                           
#>  1 MA    Massachusetts      (MA) Massachusetts              
#>  2 VT    Vermont            (VT) Vermont                    
#>  3 WA    Washington         (WA) Washington                 
#>  4 HI    Hawaii             (HI) Hawaii                     
#>  5 WNC   West North Central Region: (WNC) West North Central
#>  6 NC    North Carolina     (NC) North Carolina             
#>  7 ENC   East North Central Region: (ENC) East North Central
#>  8 MTN   Mountain           Region: (MTN) Mountain          
#>  9 MD    Maryland           (MD) Maryland                   
#> 10 VA    Virginia           (VA) Virginia                   
#> # … with 52 more rows
…
